<?xml version="1.0" encoding="UTF-8"?>
<robot generator="Robot 7.1.1 (Python 3.13.0 on win32)" generated="2025-02-13T22:44:11.589034" rpa="false" schemaversion="5">
<suite id="s1" name="testApi reqres" source="C:\repositorio\apiteste\tests\testApi_reqres.robot">
<test id="s1-t1" name="CONSULTAR USUARIOS COM SUCESSO" line="8">
<kw name="DADO QUE CONSULTE O ENDPOINT /api/users" owner="api_reqres">
<kw name="Create Session" owner="RequestsLibrary">
<msg time="2025-02-13T22:44:12.424981" level="INFO">Creating Session using : alias=reqres, url=https://reqres.in, headers={},                     cookies={}, auth=None, timeout=None, proxies=None, verify=False,                     debug=0 </msg>
<arg>reqres</arg>
<arg>${url_reqres}</arg>
<doc>Create Session: create a HTTP session to a server</doc>
<status status="PASS" start="2025-02-13T22:44:12.424698" elapsed="0.000578"/>
</kw>
<status status="PASS" start="2025-02-13T22:44:12.423662" elapsed="0.001759"/>
</kw>
<kw name="QUANDO EU PASSAR O PARAMETRO PAGE=1" owner="api_reqres">
<kw name="Create Dictionary" owner="BuiltIn">
<msg time="2025-02-13T22:44:12.426892" level="INFO">${headers} = {'content-type': 'application/json'}</msg>
<var>${headers}</var>
<arg>content-type=application/json</arg>
<doc>Creates and returns a dictionary based on the given ``items``.</doc>
<status status="PASS" start="2025-02-13T22:44:12.426359" elapsed="0.000605"/>
</kw>
<kw name="GET On Session" owner="RequestsLibrary">
<msg time="2025-02-13T22:44:12.767356" level="INFO">GET Request : url=https://reqres.in/api/users 
 path_url=/api/users 
 headers={'User-Agent': 'python-requests/2.32.3', 'Accept-Encoding': 'gzip, deflate', 'Accept': '*/*', 'Connection': 'keep-alive'} 
 body=None 
 </msg>
<msg time="2025-02-13T22:44:12.767682" level="INFO">GET Response : url=https://reqres.in/api/users 
 status=200, reason=OK 
 headers={'Date': 'Fri, 14 Feb 2025 01:44:12 GMT', 'Content-Type': 'application/json; charset=utf-8', 'Transfer-Encoding': 'chunked', 'Connection': 'keep-alive', 'Report-To': '{"group":"heroku-nel","max_age":3600,"endpoints":[{"url":"https://nel.heroku.com/reports?ts=1739230645&amp;sid=c4c9725f-1ab0-44d8-820f-430df2718e11&amp;s=1sC4OSSJkfDrjcr6%2B4p8Jn%2BA66QM1L47XLPoul%2F%2FJXU%3D"}]}', 'Reporting-Endpoints': 'heroku-nel=https://nel.heroku.com/reports?ts=1739230645&amp;sid=c4c9725f-1ab0-44d8-820f-430df2718e11&amp;s=1sC4OSSJkfDrjcr6%2B4p8Jn%2BA66QM1L47XLPoul%2F%2FJXU%3D', 'Nel': '{"report_to":"heroku-nel","max_age":3600,"success_fraction":0.005,"failure_fraction":0.05,"response_headers":["Via"]}', 'X-Powered-By': 'Express', 'Access-Control-Allow-Origin': '*', 'Etag': 'W/"41e-bY3U72nulxuwNd/TmihMEHjLmek"', 'Via': '1.1 vegur', 'Cache-Control': 'max-age=14400', 'CF-Cache-Status': 'HIT', 'Age': '288', 'Vary': 'Accept-Encoding', 'Server': 'cloudflare', 'CF-RAY': '91195f281e276487-GIG', 'Content-Encoding': 'gzip', 'server-timing': 'cfL4;desc="?proto=TCP&amp;rtt=33442&amp;min_rtt=31066&amp;rtt_var=12348&amp;sent=5&amp;recv=6&amp;lost=0&amp;retrans=0&amp;sent_bytes=2835&amp;recv_bytes=768&amp;delivery_rate=91447&amp;cwnd=252&amp;unsent_bytes=0&amp;cid=b6206e7343bc59c1&amp;ts=56&amp;x=0"'} 
 body={"page":1,"per_page":6,"total":12,"total_pages":2,"data":[{"id":1,"email":"george.bluth@reqres.in","first_name":"George","last_name":"Bluth","avatar":"https://reqres.in/img/faces/1-image.jpg"},{"id":2,"email":"janet.weaver@reqres.in","first_name":"Janet","last_name":"Weaver","avatar":"https://reqres.in/img/faces/2-image.jpg"},{"id":3,"email":"emma.wong@reqres.in","first_name":"Emma","last_name":"Wong","avatar":"https://reqres.in/img/faces/3-image.jpg"},{"id":4,"email":"eve.holt@reqres.in","first_name":"Eve","last_name":"Holt","avatar":"https://reqres.in/img/faces/4-image.jpg"},{"id":5,"email":"charles.morris@reqres.in","first_name":"Charles","last_name":"Morris","avatar":"https://reqres.in/img/faces/5-image.jpg"},{"id":6,"email":"tracey.ramos@reqres.in","first_name":"Tracey","last_name":"Ramos","avatar":"https://reqres.in/img/faces/6-image.jpg"}],"support":{"url":"https://contentcaddy.io?utm_source=reqres&amp;utm_medium=json&amp;utm_campaign=referral","text":"Tired of writing endless social media content? Let Content Caddy generate it for you."}} 
 </msg>
<msg time="2025-02-13T22:44:12.767896" level="INFO">C:\Users\André\AppData\Local\Programs\Python\Python313\Lib\site-packages\urllib3\connectionpool.py:1099: InsecureRequestWarning: Unverified HTTPS request is being made to host 'reqres.in'. Adding certificate verification is strongly advised. See: https://urllib3.readthedocs.io/en/latest/advanced-usage.html#tls-warnings
  warnings.warn(</msg>
<msg time="2025-02-13T22:44:12.776063" level="INFO">${resposta} = &lt;Response [200]&gt;</msg>
<var>${resposta}</var>
<arg>reqres</arg>
<arg>/api/users</arg>
<arg>expected_status=any</arg>
<doc>Sends a GET request on a previously created HTTP Session.</doc>
<status status="PASS" start="2025-02-13T22:44:12.427194" elapsed="0.348988"/>
</kw>
<kw name="Log" owner="BuiltIn">
<msg time="2025-02-13T22:44:12.777999" level="INFO">{"page":1,"per_page":6,"total":12,"total_pages":2,"data":[{"id":1,"email":"george.bluth@reqres.in","first_name":"George","last_name":"Bluth","avatar":"https://reqres.in/img/faces/1-image.jpg"},{"id":2,"email":"janet.weaver@reqres.in","first_name":"Janet","last_name":"Weaver","avatar":"https://reqres.in/img/faces/2-image.jpg"},{"id":3,"email":"emma.wong@reqres.in","first_name":"Emma","last_name":"Wong","avatar":"https://reqres.in/img/faces/3-image.jpg"},{"id":4,"email":"eve.holt@reqres.in","first_name":"Eve","last_name":"Holt","avatar":"https://reqres.in/img/faces/4-image.jpg"},{"id":5,"email":"charles.morris@reqres.in","first_name":"Charles","last_name":"Morris","avatar":"https://reqres.in/img/faces/5-image.jpg"},{"id":6,"email":"tracey.ramos@reqres.in","first_name":"Tracey","last_name":"Ramos","avatar":"https://reqres.in/img/faces/6-image.jpg"}],"support":{"url":"https://contentcaddy.io?utm_source=reqres&amp;utm_medium=json&amp;utm_campaign=referral","text":"Tired of writing endless social media content? Let Content Caddy generate it for you."}}</msg>
<arg>${resposta.text}</arg>
<doc>Logs the given message with the given level.</doc>
<status status="PASS" start="2025-02-13T22:44:12.776609" elapsed="0.001561"/>
</kw>
<kw name="Set Suite Variable" owner="BuiltIn">
<msg time="2025-02-13T22:44:12.779082" level="INFO">${resposta} = &lt;Response [200]&gt;</msg>
<arg>${resposta}</arg>
<doc>Makes a variable available everywhere within the scope of the current suite.</doc>
<status status="PASS" start="2025-02-13T22:44:12.778532" elapsed="0.000673"/>
</kw>
<status status="PASS" start="2025-02-13T22:44:12.425946" elapsed="0.353450"/>
</kw>
<kw name="ENTÃO A API DEVE RETORNAR 200 SUCESSO" owner="api_reqres">
<kw name="Should Be Equal As Strings" owner="BuiltIn">
<msg time="2025-02-13T22:44:12.781964" level="INFO">Argument types are:
&lt;class 'int'&gt;
&lt;class 'str'&gt;</msg>
<arg>${resposta.status_code}</arg>
<arg>${status_code_desejado}</arg>
<doc>Fails if objects are unequal after converting them to strings.</doc>
<status status="PASS" start="2025-02-13T22:44:12.780649" elapsed="0.001479"/>
</kw>
<arg>200</arg>
<status status="PASS" start="2025-02-13T22:44:12.779972" elapsed="0.002347"/>
</kw>
<kw name="ENTÃO VALIDO O CONTEUDO DO RESPONSE BODY" owner="api_reqres">
<kw name="Convert String To Json" owner="JSONLibrary">
<msg time="2025-02-13T22:44:12.785277" level="INFO">${Json_response} = {'page': 1, 'per_page': 6, 'total': 12, 'total_pages': 2, 'data': [{'id': 1, 'email': 'george.bluth@reqres.in', 'first_name': 'George', 'last_name': 'Bluth', 'avatar': 'https://reqres.in/img/faces/1-i...</msg>
<var>${Json_response}</var>
<arg>${resposta.text}</arg>
<doc>Convert String to JSON object</doc>
<status status="PASS" start="2025-02-13T22:44:12.783836" elapsed="0.001530"/>
</kw>
<kw name="Get From Dictionary" owner="Collections">
<msg time="2025-02-13T22:44:12.786360" level="INFO">${data_list} = [{'id': 1, 'email': 'george.bluth@reqres.in', 'first_name': 'George', 'last_name': 'Bluth', 'avatar': 'https://reqres.in/img/faces/1-image.jpg'}, {'id': 2, 'email': 'janet.weaver@reqres.in', 'first_na...</msg>
<var>${data_list}</var>
<arg>${Json_response}</arg>
<arg>data</arg>
<doc>Returns a value from the given ``dictionary`` based on the given ``key``.</doc>
<status status="PASS" start="2025-02-13T22:44:12.785810" elapsed="0.000825"/>
</kw>
<for flavor="IN">
<iter>
<kw name="Dictionary Should Contain Key" owner="Collections">
<arg>${item}</arg>
<arg>id</arg>
<doc>Fails if ``key`` is not found from ``dictionary``.</doc>
<status status="PASS" start="2025-02-13T22:44:12.787548" elapsed="0.000411"/>
</kw>
<kw name="Dictionary Should Contain Key" owner="Collections">
<arg>${item}</arg>
<arg>email</arg>
<doc>Fails if ``key`` is not found from ``dictionary``.</doc>
<status status="PASS" start="2025-02-13T22:44:12.788257" elapsed="0.000374"/>
</kw>
<kw name="Dictionary Should Contain Key" owner="Collections">
<arg>${item}</arg>
<arg>first_name</arg>
<doc>Fails if ``key`` is not found from ``dictionary``.</doc>
<status status="PASS" start="2025-02-13T22:44:12.788915" elapsed="0.000342"/>
</kw>
<kw name="Dictionary Should Contain Key" owner="Collections">
<arg>${item}</arg>
<arg>last_name</arg>
<doc>Fails if ``key`` is not found from ``dictionary``.</doc>
<status status="PASS" start="2025-02-13T22:44:12.789533" elapsed="0.000359"/>
</kw>
<kw name="Dictionary Should Contain Key" owner="Collections">
<arg>${item}</arg>
<arg>avatar</arg>
<doc>Fails if ``key`` is not found from ``dictionary``.</doc>
<status status="PASS" start="2025-02-13T22:44:12.790170" elapsed="0.000358"/>
</kw>
<kw name="Dictionary Should Contain Key" owner="Collections">
<msg time="2025-02-13T22:44:12.791273" level="FAIL">Dictionary does not contain key 'andre'.</msg>
<arg>${item}</arg>
<arg>andre</arg>
<doc>Fails if ``key`` is not found from ``dictionary``.</doc>
<status status="FAIL" start="2025-02-13T22:44:12.790813" elapsed="0.000807">Dictionary does not contain key 'andre'.</status>
</kw>
<var name="${item}">{'id': 1, 'email': 'george.bluth@reqres.in', 'first_name': 'George', 'last_name': 'Bluth', 'avatar': 'https://reqres.in/img/faces/1-image.jpg'}</var>
<status status="FAIL" start="2025-02-13T22:44:12.787321" elapsed="0.004521">Dictionary does not contain key 'andre'.</status>
</iter>
<var>${item}</var>
<value>@{data_list}</value>
<status status="FAIL" start="2025-02-13T22:44:12.786866" elapsed="0.005158">Dictionary does not contain key 'andre'.</status>
</for>
<status status="FAIL" start="2025-02-13T22:44:12.783157" elapsed="0.009158">Dictionary does not contain key 'andre'.</status>
</kw>
<status status="FAIL" start="2025-02-13T22:44:12.422378" elapsed="0.370689">Dictionary does not contain key 'andre'.</status>
</test>
<status status="FAIL" start="2025-02-13T22:44:11.591388" elapsed="1.203947"/>
</suite>
<statistics>
<total>
<stat pass="0" fail="1" skip="0">All Tests</stat>
</total>
<tag>
</tag>
<suite>
<stat pass="0" fail="1" skip="0" id="s1" name="testApi reqres">testApi reqres</stat>
</suite>
</statistics>
<errors>
</errors>
</robot>
